…
Correlation of Fixed Effects:
          (Intr) postnI postnR postnT postnF
positionI -0.018                            
positionR -0.037  0.161                     
positionT -0.028  0.120  0.240              
positionF -0.035  0.152  0.305  0.226       
positionO -0.013  0.058  0.116  0.086  0.109
# A tibble: 769 × 4
# Groups:   id [5]
   id       f1    f2    f3
   <chr> <dbl> <dbl> <dbl>
 1 subj1  639. 1471. 2614.
 2 subj1  309. 1333. 2476.
 3 subj1  333. 1808. 2862.
 4 subj1  602. 1611. 3227.
 5 subj1  651. 1793. 2609.
 6 subj1  293. 1985. 2625.
 7 subj1  278. 2188. 2912.
 8 subj1  557. 1660. 3608.
 9 subj1  569. 1545. 2468.
10 subj1  297. 1330. 2583.
# ℹ 759 more rows
# ℹ Use `print(n = ...)` to see more rows
# A tibble: 2,307 × 3
# Groups:   id [5]
   id    formant value
   <chr> <chr>   <dbl>
 1 subj1 f1       639.
 2 subj1 f2      1471.
 3 subj1 f3      2614.
 4 subj1 f1       309.
 5 subj1 f2      1333.
 6 subj1 f3      2476.
 7 subj1 f1       333.
 8 subj1 f2      1808.
 9 subj1 f3      2862.
10 subj1 f1       602.
# ℹ 2,297 more rows
# ℹ Use `print(n = ...)` to see more rows
# A tibble: 769 × 23
# Groups:   id [5]
   id    rec   word_duration numphoneme phoneme duration timef    f0 f0max f0min    f1    f2    f3 intensity
   <chr> <chr>         <dbl>      <dbl> <chr>      <dbl> <dbl> <dbl> <dbl> <dbl> <dbl> <dbl> <dbl>     <dbl>
 1 subj1 1-1           0.262          1 ɐ         0.105  0.524  130.  136. 124.   639. 1471. 2614.      80.0
 2 subj1 1-1           0.262          4 o         0.0633 0.806  108.  111. 104.   309. 1333. 2476.      78.6
 3 subj1 1-1           0.262          6 ə̝         0.0504 0.965  101.  106.  90.3  333. 1808. 2862.      71.9
 4 subj1 1-1           0.262          8 ə         0.0438 1.14    -1    -1   -1    602. 1611. 3227.      69.6
 5 subj1 1-2           0.248          1 ɐ         0.0381 0.217   -1    -1   -1    651. 1793. 2609.      64.9
 6 subj1 1-2           0.248          4 ɐ         0.0326 0.424  116.  117. 114.   293. 1985. 2625.      76.6
 7 subj1 1-2           0.248          6 i         0.106  0.608  109.  136. 104.   278. 2188. 2912.      73.3
 8 subj1 1-2           0.248          8 ə         0.0717 0.849  103.  106.  97.1  557. 1660. 3608.      72.3
 9 subj1 10-1          0.212          3 a         0.140  0.373  112.  119. 102.   569. 1545. 2468.      80.0
10 subj1 10-1          0.212          5 ə̝ᶷ        0.0720 0.619  102.  105.  94.6  297. 1330. 2583.      68.7
# ℹ 759 more rows
# ℹ 9 more variables: intensitymax <dbl>, reduction <fct>, position <ord>, manner <chr>, place <chr>,
#   voicing <chr>, palatalization <chr>, stress <chr>, rel_duration <dbl>
# ℹ Use `print(n = ...)` to see more rows
